PCBNEW-LibModule-V1  01-05-2009 14:49:40
$INDEX
J00-00XX
RJ45ETH
NU1S041C
$EndINDEX
$MODULE RJ45ETH
Po 0 0 0 15 49C99C01 00000000 ~~
Li RJ45ETH
Sc 00000000
AR
Op 0 0 0
T0 0 2500 600 600 0 120 N V 21 N"CN1"
T1 0 0 60 60 0 15 N I 21 N"VAL**"
DS 3300 3000 -3300 3000 100 21
DS 3300 -1700 3300 -4200 100 21
DS 3300 -4200 -3300 -4200 100 21
DS -3300 -4200 -3300 -1600 100 21
DS -3300 4200 -3300 -700 100 21
DS -3300 4200 3300 4200 100 21
DS 3300 4200 3300 -700 100 21
$PAD
Sh "" C 1400 1400 0 0 0
Dr 1260 0 0
At STD N 00E0FFFF
Ne 0 ""
Po -2250 0
$EndPAD
$PAD
Sh "" C 1400 1400 0 0 0
Dr 1260 0 0
At STD N 00E0FFFF
Ne 0 ""
Po 2250 0
$EndPAD
$PAD
Sh "1" C 600 600 0 0 0
Dr 320 0 0
At STD N 00E0FFFF
Ne 0 ""
Po -1750 -2500
$EndPAD
$PAD
Sh "2" C 600 600 0 0 0
Dr 320 0 0
At STD N 00E0FFFF
Ne 0 ""
Po -1250 -3500
$EndPAD
$PAD
Sh "3" C 600 600 0 0 0
Dr 320 0 0
At STD N 00E0FFFF
Ne 0 ""
Po -750 -2500
$EndPAD
$PAD
Sh "4" C 600 600 0 0 0
Dr 320 0 0
At STD N 00E0FFFF
Ne 0 ""
Po -250 -3500
$EndPAD
$PAD
Sh "5" C 600 600 0 0 0
Dr 320 0 0
At STD N 00E0FFFF
Ne 0 ""
Po 250 -2500
$EndPAD
$PAD
Sh "6" C 600 600 0 0 0
Dr 320 0 0
At STD N 00E0FFFF
Ne 0 ""
Po 750 -3500
$EndPAD
$PAD
Sh "7" C 600 600 0 0 0
Dr 320 0 0
At STD N 00E0FFFF
Ne 0 ""
Po 1250 -2500
$EndPAD
$PAD
Sh "8" C 600 600 0 0 0
Dr 320 0 0
At STD N 00E0FFFF
Ne 0 ""
Po 1750 -3500
$EndPAD
$PAD
Sh "0" C 900 900 0 0 0
Dr 600 0 0
At STD N 00E0FFFF
Ne 0 ""
Po -3100 -1150
$EndPAD
$PAD
Sh "0" C 900 900 0 0 0
Dr 600 0 0
At STD N 00E0FFFF
Ne 0 ""
Po 3100 -1200
$EndPAD
$PAD
Sh "9" C 700 700 0 0 0
Dr 360 0 0
At STD N 00E0FFFF
Ne 0 ""
Po -2550 1600
$EndPAD
$PAD
Sh "10" C 700 700 0 0 0
Dr 360 0 0
At STD N 00E0FFFF
Ne 0 ""
Po -1550 1600
$EndPAD
$PAD
Sh "11" C 700 700 0 0 0
Dr 360 0 0
At STD N 00E0FFFF
Ne 0 ""
Po 1550 1600
$EndPAD
$PAD
Sh "12" C 700 700 0 0 0
Dr 360 0 0
At STD N 00E0FFFF
Ne 0 ""
Po 2550 1600
$EndPAD
$EndMODULE  RJ45ETH
$MODULE j00-00xx
Po 0 0 0 15 49F66565 00000000 ~~
Li j00-00xx
Sc 00000000
AR
Op 0 0 0
T0 0 2500 600 600 0 120 N V 21 N"CN1"
T1 0 0 60 60 0 15 N I 21 N"VAL**"
DS 3300 3000 -3300 3000 100 21
DS 3300 -1700 3300 -4200 100 21
DS 3300 -4200 -3300 -4200 100 21
DS -3300 -4200 -3300 -1600 100 21
DS -3300 4200 -3300 -700 100 21
DS -3300 4200 3300 4200 100 21
DS 3300 4200 3300 -700 100 21
$PAD
Sh "" C 1400 1400 0 0 0
Dr 1260 0 0
At STD N 00E0FFFF
Ne 0 ""
Po -2250 0
$EndPAD
$PAD
Sh "" C 1400 1400 0 0 0
Dr 1260 0 0
At STD N 00E0FFFF
Ne 0 ""
Po 2250 0
$EndPAD
$PAD
Sh "1" C 600 600 0 0 0
Dr 320 0 0
At STD N 00E0FFFF
Ne 0 ""
Po -1750 -2500
$EndPAD
$PAD
Sh "2" C 600 600 0 0 0
Dr 320 0 0
At STD N 00E0FFFF
Ne 0 ""
Po -1250 -3500
$EndPAD
$PAD
Sh "3" C 600 600 0 0 0
Dr 320 0 0
At STD N 00E0FFFF
Ne 0 ""
Po -750 -2500
$EndPAD
$PAD
Sh "4" C 600 600 0 0 0
Dr 320 0 0
At STD N 00E0FFFF
Ne 0 ""
Po -250 -3500
$EndPAD
$PAD
Sh "5" C 600 600 0 0 0
Dr 320 0 0
At STD N 00E0FFFF
Ne 0 ""
Po 250 -2500
$EndPAD
$PAD
Sh "6" C 600 600 0 0 0
Dr 320 0 0
At STD N 00E0FFFF
Ne 0 ""
Po 750 -3500
$EndPAD
$PAD
Sh "7" C 600 600 0 0 0
Dr 320 0 0
At STD N 00E0FFFF
Ne 0 ""
Po 1250 -2500
$EndPAD
$PAD
Sh "8" C 600 600 0 0 0
Dr 320 0 0
At STD N 00E0FFFF
Ne 0 ""
Po 1750 -3500
$EndPAD
$PAD
Sh "0" C 900 900 0 0 0
Dr 600 0 0
At STD N 00E0FFFF
Ne 0 ""
Po -3100 -1150
$EndPAD
$PAD
Sh "0" C 900 900 0 0 0
Dr 600 0 0
At STD N 00E0FFFF
Ne 0 ""
Po 3100 -1200
$EndPAD
$PAD
Sh "9" C 700 700 0 0 0
Dr 360 0 0
At STD N 00E0FFFF
Ne 0 ""
Po -2550 1850
$EndPAD
$PAD
Sh "10" C 700 700 0 0 0
Dr 360 0 0
At STD N 00E0FFFF
Ne 0 ""
Po -1550 1350
$EndPAD
$PAD
Sh "11" C 700 700 0 0 0
Dr 360 0 0
At STD N 00E0FFFF
Ne 0 ""
Po 1550 1850
$EndPAD
$PAD
Sh "12" C 700 700 0 0 0
Dr 360 0 0
At STD N 00E0FFFF
Ne 0 ""
Po 2550 1350
$EndPAD
$EndMODULE  j00-00xx
$MODULE NU1S041C
Po 0 0 0 15 49FB35F9 00000000 ~~
Li NU1S041C
Sc 00000000
AR 
Op 0 0 0
T0 0 2500 600 600 0 120 N V 21 N"CN1"
T1 0 0 60 60 0 15 N I 21 N"VAL**"
DS 3300 5200 3300 -6300 150 21
DS 3300 -6300 -3350 -6300 150 21
DS -3350 -6300 -3350 5200 150 21
DS -3350 5200 3300 5200 150 21
DS -3350 4200 3300 4200 150 21
$PAD
Sh "" C 1400 1400 0 0 0
Dr 1260 0 0
At STD N 00E0FFFF
Ne 0 ""
Po -2250 0
$EndPAD
$PAD
Sh "" C 1400 1400 0 0 0
Dr 1260 0 0
At STD N 00E0FFFF
Ne 0 ""
Po 2250 0
$EndPAD
$PAD
Sh "1" C 600 600 0 0 0
Dr 320 0 0
At STD N 00E0FFFF
Ne 0 ""
Po -1750 -2500
$EndPAD
$PAD
Sh "2" C 600 600 0 0 0
Dr 320 0 0
At STD N 00E0FFFF
Ne 0 ""
Po -1250 -3500
$EndPAD
$PAD
Sh "3" C 600 600 0 0 0
Dr 320 0 0
At STD N 00E0FFFF
Ne 0 ""
Po -750 -2500
$EndPAD
$PAD
Sh "4" C 600 600 0 0 0
Dr 320 0 0
At STD N 00E0FFFF
Ne 0 ""
Po -250 -3500
$EndPAD
$PAD
Sh "5" C 600 600 0 0 0
Dr 320 0 0
At STD N 00E0FFFF
Ne 0 ""
Po 250 -2500
$EndPAD
$PAD
Sh "6" C 600 600 0 0 0
Dr 320 0 0
At STD N 00E0FFFF
Ne 0 ""
Po 750 -3500
$EndPAD
$PAD
Sh "7" C 600 600 0 0 0
Dr 320 0 0
At STD N 00E0FFFF
Ne 0 ""
Po 1250 -2500
$EndPAD
$PAD
Sh "8" C 600 600 0 0 0
Dr 320 0 0
At STD N 00E0FFFF
Ne 0 ""
Po 1750 -3500
$EndPAD
$PAD
Sh "0" C 900 900 0 0 0
Dr 600 0 0
At STD N 00E0FFFF
Ne 0 ""
Po -3100 -1150
$EndPAD
$PAD
Sh "0" C 900 900 0 0 0
Dr 600 0 0
At STD N 00E0FFFF
Ne 0 ""
Po 3100 -1200
$EndPAD
$PAD
Sh "13" C 700 700 0 0 0
Dr 360 0 0
At STD N 00E0FFFF
Ne 0 ""
Po -1600 -4350
$EndPAD
$PAD
Sh "14" C 700 700 0 0 0
Dr 360 0 0
At STD N 00E0FFFF
Ne 0 ""
Po -2350 -5400
$EndPAD
$PAD
Sh "11" C 700 700 0 0 0
Dr 360 0 0
At STD N 00E0FFFF
Ne 0 ""
Po 600 -4400
$EndPAD
$PAD
Sh "12" C 700 700 0 0 0
Dr 360 0 0
At STD N 00E0FFFF
Ne 0 ""
Po -200 -5400
$EndPAD
$PAD
Sh "9" C 700 700 0 0 0
Dr 360 0 0
At STD N 00E0FFFF
Ne 0 ""
Po 2600 -4400
$EndPAD
$PAD
Sh "10" C 700 700 0 0 0
Dr 360 0 0
At STD N 00E0FFFF
Ne 0 ""
Po 1800 -5400
$EndPAD
$EndMODULE  NU1S041C
$EndLIBRARY
